…
Grouping and Summarizing Part 1

In order to group and summarize the datset more effectively with tidyr,
we need to convert some of the data (such as Close Date) into Discrete
data variables (such as Month and Year).

Grouping and Summarizing Part 2

Now that we have date variables that can be grouped, we’ll group some
sets of data, and plot them.

    ## # A tibble: 27 x 6
    ##    industry                     sumWon meanWon medianWon    maxWon   minWon
    ##    <chr>                         <dbl>   <dbl>     <dbl>     <dbl>    <dbl>
    ##  1 Aerospace & Defense          3.18e7  58423.     3532.    3.40e6  -2.53e4
    ##  2 Automotive                   4.90e7  66110.    10000     2.88e6  -4.99e3
    ##  3 Computer Hardware            2.96e7  30935.     6221.    2.23e6  -1.78e4
    ##  4 Computer Software            6.81e8 134966.     1728.    5.22e8  -3.21e6
    ##  5 Consumer Packaged Goods      4.51e7  22560.     1725.    4.87e6  -3.50e4
    ##  6 Distribution & Transport…    7.52e7  78695.     6864.    4.71e6  -1.71e4
    ##  7 Education                    3.24e7  32046.     3826.    2.77e6  -1.98e5
    ##  8 Energy                       1.41e8 111241.    18688.    4.00e6  -3.67e5
    ##  9 Engineering & Constructi…    5.92e7  50702.     3886.    1.18e7  -1.90e3
    ## 10 Federal Public Sector        2.45e7  46614.     3798.    2.22e6   0.    
    ## # ... with 17 more rows
…
